…
```
## tibble [33,241 × 3] (S3: tbl_df/tbl/data.frame)
##  $ year      : num [1:33241] 1800 1801 1802 1803 1804 ...
##  $ country   : chr [1:33241] "Afghanistan" "Afghanistan" "Afghanistan" "Afghanistan" ...
##  $ child_mort: num [1:33241] 469 469 469 469 469 ...
```

```
## # A tibble: 194 × 2
##    country                 n
##    <chr>               <int>
##  1 Afghanistan           209
##  2 Albania               187
##  3 Algeria               205
##  4 Andorra                24
##  5 Angola                205
##  6 Antigua and Barbuda    56
##  7 Argentina             200
##  8 Armenia                58
##  9 Australia             205
## 10 Austria               205
## # … with 184 more rows
```
…
