…
```r
SoloData
```

```
## # A tibble: 139 × 5
##    name              band              followers band_followers follower_differ…
##    <chr>             <chr>             <chr>     <chr>          <chr>           
##  1 Daron Jones       112               1.28k     783k           −782k           
##  2 Slim              112               2.14k     783k           −781k           
##  3 Q Parker          112               3.51k     783k           −780k           
##  4 JC Chasez         *NSYNC            30.8k     1.44M          −1.41M          
##  5 Joey Fatone       *NSYNC            1.13k     1.44M          −1.44M          
##  6 Justin Timberlake *NSYNC            10.3M     1.44M          8.90M           
##  7 Ashton Irwin      5 Seconds of Sum… 130k      7.14M          −7.01M          
##  8 Abz Love          5ive              223       19.0k          −18.7k          
##  9 Jeff Timmons      98º               111       302k           −302k           
## 10 Nick Lachey       98º               142k      302k           −160k           
## # … with 129 more rows
```
…
```r
FireArmDat
```

```
## # A tibble: 15,730 × 27
##    month   state     permit permit_recheck handgun long_gun other multiple admin
##    <chr>   <chr>      <dbl>          <dbl>   <dbl>    <dbl> <dbl>    <dbl> <dbl>
##  1 2022-08 Alabama    20271            326   18400    13679  1315     1074     0
##  2 2022-08 Alaska       291             16    3225     3005   373      208     0
##  3 2022-08 Arizona     8278           2029   19079     9304  1947     1239     0
##  4 2022-08 Arkansas    2585            334    6885     5697   516      427    14
##  5 2022-08 Californ…  39274          14674   39236    25005  5743        0     0
##  6 2022-08 Colorado    7271            128   20557    13165  1812     1766     0
##  7 2022-08 Connecti…   9417            689    4111     1347   874        0     1
##  8 2022-08 Delaware     490              0    1913      910   104       71     0
##  9 2022-08 District…   1102              0     491       18     0       12     3
## 10 2022-08 Florida    20897              0   60229    22654  5518     3159     0
## # … with 15,720 more rows, and 18 more variables: prepawn_handgun <dbl>,
## #   prepawn_long_gun <dbl>, prepawn_other <dbl>, redemption_handgun <dbl>,
## #   redemption_long_gun <dbl>, redemption_other <dbl>, returned_handgun <dbl>,
## #   returned_long_gun <dbl>, returned_other <dbl>, rentals_handgun <dbl>,
## #   rentals_long_gun <dbl>, private_sale_handgun <dbl>,
## #   private_sale_long_gun <dbl>, private_sale_other <dbl>,
## #   return_to_seller_handgun <dbl>, return_to_seller_long_gun <dbl>, …
```
…
```r
AirSafety
```

```
## # A tibble: 56 × 8
##    airline    avail_seat_km_p… incidents_85_99 fatal_accidents… fatalities_85_99
##    <chr>                 <dbl>           <dbl>            <dbl>            <dbl>
##  1 Aer Lingus        320906734               2                0                0
##  2 Aeroflot*        1197672318              76               14              128
##  3 Aerolinea…        385803648               6                0                0
##  4 Aeromexic…        596871813               3                1               64
##  5 Air Canada       1865253802               2                0                0
##  6 Air France       3004002661              14                4               79
##  7 Air India*        869253552               2                1              329
##  8 Air New Z…        710174817               3                0                0
##  9 Alaska Ai…        965346773               5                0                0
## 10 Alitalia          698012498               7                2               50
## # … with 46 more rows, and 3 more variables: incidents_00_14 <dbl>,
## #   fatal_accidents_00_14 <dbl>, fatalities_00_14 <dbl>
```
…
```r
FitStudents
```

```
## # A tibble: 37,236 × 14
##    `LGHC Indicator …` Year  Strata `Strata Name` Geography `Grade Lev` Numerator
##    <chr>              <chr> <chr>  <chr>         <chr>     <chr>           <dbl>
##  1 score 6 of 6       1998… None   All Students  Alameda   Grade 5          2711
##  2 score 6 of 6       1998… None   All Students  Alameda   Grade 7          2549
##  3 score 6 of 6       1998… None   All Students  Alameda   Grade 9          1986
##  4 score 6 of 6       1998… None   All Students  Amador    Grade 5            28
##  5 score 6 of 6       1998… None   All Students  Amador    Grade 7             5
##  6 score 6 of 6       1998… None   All Students  Amador    Grade 9            53
##  7 score 6 of 6       1998… None   All Students  Butte     Grade 5           292
##  8 score 6 of 6       1998… None   All Students  Butte     Grade 7           411
##  9 score 6 of 6       1998… None   All Students  Butte     Grade 9           383
## 10 score 6 of 6       1998… None   All Students  Calaveras Grade 5            43
## # … with 37,226 more rows, and 7 more variables: Denominator <dbl>,
## #   Percent <dbl>, LCI <dbl>, UCI <dbl>, `Stardard Error` <dbl>, RSE <dbl>,
## #   warning <chr>
```
…
