…
```r
worst_delay <- flights %>%
  select(arr_delay, dest) %>%
  drop_na() %>%
  group_by(dest) %>%
  summarise(avg_delay = mean(arr_delay)) %>%
  arrange(desc(avg_delay))

worst_delay
```

```
## # A tibble: 104 × 2
##    dest  avg_delay
##    <chr>     <dbl>
##  1 CAE        41.8
##  2 TUL        33.7
##  3 OKC        30.6
##  4 JAC        28.1
##  5 TYS        24.1
##  6 MSN        20.2
##  7 RIC        20.1
##  8 CAK        19.7
##  9 DSM        19.0
## 10 GRR        18.2
## # … with 94 more rows
```
…
